[
    {
        "name": "English (UK)",
        "code": "en-gb"
    },
    {
        "name": "English (US)",
        "code": "en-us"
    },
    {
        "name": "English (India)",
        "code": "en-in"
    },
    {
        "name": "English (South Africa)",
        "code": "en-za"
    }
]